<?xml version="1.0" encoding="UTF-8"?>
<svg width="19px" height="11px" viewBox="0 0 19 11" version="1.1" xmlns="http://www.w3.org/2000/svg" xmlns:xlink="http://www.w3.org/1999/xlink">
    <!-- Generator: Sketch 51.3 (57544) - http://www.bohemiancoding.com/sketch -->
    <title>Path 14</title>
    <desc>Created with Sketch.</desc>
    <defs></defs>
    <g id="Page-1" stroke="none" stroke-width="1" fill="none" fill-rule="evenodd">
        <g id="004-copy-3" transform="translate(-15.000000, -20.000000)" fill="#979797" fill-rule="nonzero">
            <path d="M32.3124245,20.2928932 C32.7029488,19.9023689 33.3361137,19.9023689 33.726638,20.2928932 C34.1171623,20.6834175 34.1171623,21.3165825 33.726638,21.7071068 L25.2168724,30.2168724 C24.8263481,30.6073967 24.1931831,30.6073967 23.8026588,30.2168724 L15.2928932,21.7071068 C14.9023689,21.3165825 14.9023689,20.6834175 15.2928932,20.2928932 C15.6834175,19.9023689 16.3165825,19.9023689 16.7071068,20.2928932 L24.5097656,28.0955521 L32.3124245,20.2928932 Z" id="Path-14"></path>
        </g>
    </g>
</svg>